ISSS624 - Hands-on_Ex02
…
`summarise()` has grouped output by 'PA', 'SZ'. You can override using the
`.groups` argument.

popdata2020 

# A tibble: 332 × 7
   PA         SZ                     YOUNG `ECONOMY ACTIVE`  AGED TOTAL DEPEND…¹
   <chr>      <chr>                  <dbl>            <dbl> <dbl> <dbl>    <dbl>
 1 Ang Mo Kio Ang Mo Kio Town Centre  1290             2760   760  4810    0.743
 2 Ang Mo Kio Cheng San               5640            16460  6050 28150    0.710
 3 Ang Mo Kio Chong Boon              5100            15000  6470 26570    0.771
 4 Ang Mo Kio Kebun Bahru             4620            13010  5120 22750    0.749
 5 Ang Mo Kio Sembawang Hills         1880             3630  1310  6820    0.879
 6 Ang Mo Kio Shangri-La              3330             9050  3610 15990    0.767
 7 Ang Mo Kio Tagore                  1940             4480  1530  7950    0.775
 8 Ang Mo Kio Townsville              4190            11950  5100 21240    0.777
 9 Ang Mo Kio Yio Chu Kang               0                0     0     0  NaN    
10 Ang Mo Kio Yio Chu Kang East       1110             2410   750  4270    0.772
# … with 322 more rows, and abbreviated variable name ¹​DEPENDENCY
…
